[TRACE] 2019-11-20 23:34:02.542 Application:11 - This is a trace message 
[DEBUG] 2019-11-20 23:34:02.572 Application:12 - This is a debug message 
[INFO ] 2019-11-20 23:34:02.573 Application:13 - This is an info message 
[WARN ] 2019-11-20 23:34:02.575 Application:14 - This is a warn message 
[TRACE] 2019-11-20 23:36:59.445 Application:11 - This is a trace message 
[DEBUG] 2019-11-20 23:36:59.494 Application:12 - This is a debug message 
[INFO ] 2019-11-20 23:36:59.495 Application:13 - This is an info message 
[WARN ] 2019-11-20 23:36:59.498 Application:14 - This is a warn message 
[TRACE] 2019-11-20 23:51:27.795 Application:11 - This is a trace message 
[DEBUG] 2019-11-20 23:51:27.841 Application:12 - This is a debug message 
[INFO ] 2019-11-20 23:51:27.848 Application:13 - This is an info message 
[WARN ] 2019-11-20 23:51:27.850 Application:14 - This is a warn message 
[TRACE] 2019-11-20 23:54:06.096 Application:11 - This is a trace message 
[DEBUG] 2019-11-20 23:54:06.121 Application:12 - This is a debug message 
[INFO ] 2019-11-20 23:54:06.125 Application:13 - This is an info message 
[WARN ] 2019-11-20 23:54:06.128 Application:14 - This is a warn message 
[TRACE] 2019-11-21 00:24:28.170 Application:11 - This is a trace message 
[DEBUG] 2019-11-21 00:24:28.192 Application:12 - This is a debug message 
[INFO ] 2019-11-21 00:24:28.193 Application:13 - This is an info message 
[WARN ] 2019-11-21 00:24:28.198 Application:14 - This is a warn message 
[TRACE] 2019-11-21 00:25:09.331 Application:11 - This is a trace message 
[DEBUG] 2019-11-21 00:25:09.346 Application:12 - This is a debug message 
[INFO ] 2019-11-21 00:25:09.347 Application:13 - This is an info message 
[WARN ] 2019-11-21 00:25:09.349 Application:14 - This is a warn message 
[TRACE] 2019-11-21 00:31:51.083 Application:11 - This is a trace message 
[DEBUG] 2019-11-21 00:31:51.108 Application:12 - This is a debug message 
[INFO ] 2019-11-21 00:31:51.109 Application:13 - This is an info message 
[WARN ] 2019-11-21 00:31:51.111 Application:14 - This is a warn message 
[TRACE] 2019-11-21 00:41:39.017 Application:11 - This is a trace message 
[DEBUG] 2019-11-21 00:41:39.118 Application:12 - This is a debug message 
[INFO ] 2019-11-21 00:41:39.120 Application:13 - This is an info message 
[WARN ] 2019-11-21 00:41:39.122 Application:14 - This is a warn message 
